{
  "images" : [
    {
      "resizing" : {
        "mode" : "9-part",
        "center" : {
          "mode" : "fill",
          "width" : 1,
          "height" : 1
        },
        "capInsets" : {
          "bottom" : 213,
          "top" : 212,
          "right" : 148,
          "left" : 149
        }
      },
      "idiom" : "universal",
      "filename" : "BGPaper.png",
      "scale" : "1x"
    },
    {
      "resizing" : {
        "mode" : "9-part",
        "center" : {
          "mode" : "fill",
          "width" : 1,
          "height" : 1
        },
        "capInsets" : {
          "bottom" : 426,
          "top" : 425,
          "right" : 298,
          "left" : 297
        }
      },
      "idiom" : "universal",
      "filename" : "BGPaper@2x.png",
      "scale" : "2x"
    },
    {
      "idiom" : "universal",
      "scale" : "3x"
    }
  ],
  "info" : {
    "version" : 1,
    "author" : "xcode"
  }
}